module go-mongo

go 1.16

require (
	github.com/go-stack/stack v1.8.1 // indirect
	github.com/gobeam/mongo-go-pagination v0.0.7 // indirect
	github.com/golang/snappy v0.0.4 // indirect
	github.com/klauspost/compress v1.13.6 // indirect
	github.com/youmark/pkcs8 v0.0.0-20201027041543-1326539a0a0a // indirect
	go.mongodb.org/mongo-driver v1.7.2 // indirect
	golang.org/x/crypto v0.0.0-20210921155107-089bfa567519 // indirect
	golang.org/x/sync v0.0.0-20210220032951-036812b2e83c // indirect
	golang.org/x/text v0.3.7 // indirect
)
