module scarping

go 1.16

require (
	github.com/PuerkitoBio/goquery v1.7.0 // indirect
	github.com/andybalholm/cascadia v1.2.0 // indirect
	golang.org/x/net v0.0.0-20210614182718-04defd469f4e // indirect
)
